<?xml version="1.0" encoding="UTF-8" standalone="no"?>
<!-- Created with Inkscape (http://www.inkscape.org/) -->

<svg
   width="210mm"
   height="297mm"
   viewBox="0 0 210 297"
   version="1.1"
   id="svg1"
   xml:space="preserve"
   inkscape:version="1.3.2 (091e20e, 2023-11-25)"
   sodipodi:docname="halloween.svg"
   xmlns:inkscape="http://www.inkscape.org/namespaces/inkscape"
   xmlns:sodipodi="http://sodipodi.sourceforge.net/DTD/sodipodi-0.dtd"
   xmlns="http://www.w3.org/2000/svg"
   xmlns:svg="http://www.w3.org/2000/svg"><sodipodi:namedview
     id="namedview1"
     pagecolor="#ffffff"
     bordercolor="#666666"
     borderopacity="1.0"
     inkscape:showpageshadow="2"
     inkscape:pageopacity="0.0"
     inkscape:pagecheckerboard="0"
     inkscape:deskcolor="#d1d1d1"
     inkscape:document-units="mm"
     inkscape:zoom="0.2102413"
     inkscape:cx="-23.782197"
     inkscape:cy="796.70359"
     inkscape:window-width="1464"
     inkscape:window-height="916"
     inkscape:window-x="49"
     inkscape:window-y="38"
     inkscape:window-maximized="1"
     inkscape:current-layer="layer1" /><defs
     id="defs1" /><g
     inkscape:label="Livello 1"
     inkscape:groupmode="layer"
     id="layer1"><path
       style="fill:none;stroke:#000000;stroke-opacity:1"
       d="m -23.047684,-100.30274 c 1.23693,0.12699 2.9038,0.352303 3.70416,0.500693 0.80037,0.14838 1.93146,0.31138 2.51355,0.36221 1.8947,0.16547 6.8597667,0.95624 7.6462467,1.2178 0.4219,0.14031 1.22557,0.25511 1.78594,0.25511 0.56036,0 1.01885,0.10348 1.01885,0.22996 0,0.22872 0.90156,0.43793 3.175,0.73676 0.65484,0.0861 1.22803,0.25413 1.27376,0.37347 0.0457,0.11933 0.7601,0.34837 1.58749999,0.50897 4.11444001,0.79864 8.48588001,1.76617 9.67979001,2.14243 1.4019303,0.44181 3.4188003,0.28043 4.8057903,-0.38454 3.30421,-1.58415 4.3325,-2.0166 5.93649,-2.49661 1.98648,-0.59446 3.91421,-1.04304 5.42396,-1.26213 0.58209,-0.0845 1.53459,-0.25688 2.11667,-0.38314 4.71772,-1.02327 11.38105,-1.43175 17.33021,-1.06239 8.14493,0.50568 15.66392,1.77009 19.71145,3.31473 1.01865,0.38874 2.14974,0.76561 2.51355,0.83749 0.3638,0.0719 0.89958,0.22837 1.19062,0.34774 0.29104,0.11938 1.21174,0.49737 2.04601,0.83997 0.83426,0.3426 1.51887,0.75263 1.52135,0.91117 0.002,0.15855 0.30777,0.42644 0.67842,0.59532 0.82393,0.3754 0.99314,0.38523 0.78318,0.0455 -0.28184,-0.45603 0.68613,0.0271 3.82808,1.91071 3.66168,2.19517 5.27903,3.38297 5.28999,3.88504 0.005,0.20616 0.0792,0.3038 0.16601,0.217 0.16033,-0.16034 4.0755,3.73053 4.0755,4.0502 0,0.0959 0.54159,0.99563 1.20353,1.99947 1.38961,2.10736 2.08136,3.56347 2.33488,4.91482 0.19777,1.05421 0.34317,1.10907 3.73763,1.41019 0.87313,0.0774 1.766099,0.21315 1.984379,0.30154 0.21828,0.0884 1.03185,0.19914 1.80792,0.2461 0.77608,0.047 1.80881,0.21664 2.294948,0.37708 0.48614,0.16044 1.22038,0.35038 1.63165,0.42208 0.86639,0.15105 3.54454,0.97677 5.64256,1.73971 0.80037,0.29105 1.7231,0.5923 2.05052,0.66945 0.32742,0.0771 0.59531,0.31348 0.59531,0.52519 0,0.59653 0.68533,1.14089 1.43631,1.14089 0.3742,0 0.68036,0.11906 0.68036,0.26458 0,0.14552 0.42175,0.26458 0.93721,0.26458 0.51546,0 1.08101,0.12113 1.25677,0.26917 0.65223,0.54937 2.18876,1.57714 2.70949,1.81235 0.29581,0.13361 1.10051,0.67243 1.78822,1.19738 0.68772,0.52494 1.36842,0.95444 1.51268,0.95444 0.14427,0 0.2623,0.17087 0.2623,0.37971 0,0.20885 0.47371,0.71486 1.05268,1.12448 0.57898,0.40962 1.05523,0.95312 1.05834,1.20779 0.003,0.25466 0.15447,0.46678 0.33637,0.47138 0.53466,0.0135 1.81574,1.27357 1.85743,1.82694 0.0211,0.28011 0.13792,0.44775 0.25961,0.37255 0.35071,-0.21676 0.97537,0.43755 0.81549,0.8542 -0.0972,0.25337 0.0385,0.37753 0.4126,0.37753 0.30661,0 0.55748,0.13045 0.55748,0.28988 0,0.15944 0.24623,0.63569 0.54718,1.05834 0.30095,0.42264 0.49131,0.76845 0.42301,0.76845 -0.0683,0 0.22126,0.36977 0.64345,0.82173 0.42218,0.45195 0.76761,0.93399 0.76761,1.07119 0,0.1372 0.48578,0.98082 1.07952,1.87471 0.59374,0.89389 1.38326,2.22756 1.75449,2.96371 0.37123,0.73614 0.74865,1.39798 0.83871,1.47074 0.34021,0.27487 1.1104,1.85226 0.9063,1.85613 -0.11737,0.002 -0.0898,0.0915 0.0614,0.19844 0.68115,0.48192 4.42333,10.21058 5.54509,14.41574 0.26202,0.98227 0.5778,1.78594 0.70172,1.78594 0.12393,0 0.22532,0.33337 0.22532,0.74083 0,0.40746 0.13456,0.8754 0.29902,1.03986 0.16446,0.16446 0.34743,0.73836 0.40661,1.27534 0.0592,0.53697 0.28972,1.40849 0.51232,1.93671 0.2226,0.52821 0.45298,1.31757 0.51197,1.75413 0.059,0.43657 0.3503,1.68672 0.64737,2.77813 0.29708,1.0914 0.65041,2.52015 0.78519,3.175 0.13479,0.65484 0.68491,2.91703 1.2225,5.02708 0.55785,2.1895801 1.04743,4.8586601 1.1405,6.2177101 0.11621,1.69716 0.25807,2.36225 0.49379,2.3151 0.24269,-0.0485 0.33073,0.50143 0.33073,2.06613995 0,1.20672 0.10405,2.06797005 0.23972,1.98413005 0.25526,-0.15777 0.39464,0.72083 0.81601,5.144 0.42878,4.5009099 0.50702,8.5745399 0.2548,13.2662799 -0.13018,2.42151 -0.3051,5.87085 -0.38871,7.66519 -0.0836,1.79434 -0.2602,3.7452 -0.39244,4.33525 -0.13223,0.59005 -0.32257,2.34354 -0.42299,3.89664 -0.11767,1.82007 -0.29661,2.8676 -0.50342,2.94696 -0.20258,0.0777 -0.38934,1.08253 -0.50661,2.72567 -0.10216,1.4314 -0.34901,3.25739 -0.54856,4.05775 -0.19955,0.80037 -0.42726,1.87193 -0.50603,2.38125 -0.42768,2.76559 -4.04566,14.69965 -4.13093,13.62605 -0.0396,-0.49864 -1.05416,2.38055 -1.05438,2.99217 -1.2e-4,0.33987 -0.1176,0.53838 -0.2648,0.44741 -0.22309,-0.13788 -0.40789,0.81218 -0.29591,1.52135 0.0172,0.10914 -0.0948,0.19844 -0.24887,0.19844 -0.15411,0 -0.21254,0.10946 -0.12986,0.24325 0.0827,0.13379 4.2e-4,0.40452 -0.18282,0.60162 -0.18324,0.19709 -0.36715,0.53411 -0.4087,0.74893 -0.19157,0.9906 -1.199,3.14807 -1.4093,3.01809 -0.22516,-0.13915 -0.33648,0.21703 -0.26308,0.84175 0.019,0.16185 -0.14473,0.6381 -0.36389,1.05834 -0.21916,0.42023 -0.39921,0.61523 -0.4001,0.43333 -9e-4,-0.1819 -0.10955,-0.33073 -0.24145,-0.33073 -0.13189,0 -0.18118,0.22422 -0.10951,0.49826 0.15463,0.5913 -0.17306,1.26382 -2.65793,5.45487 -3.80589,6.41912 -6.1495,9.63697 -6.67612,9.1665 -0.10508,-0.0939 -0.12028,-0.0459 -0.0338,0.10655 0.0865,0.15247 0.0508,0.44954 -0.0794,0.66017 -0.19824,0.32075 -0.30148,0.29721 -0.63559,-0.14493 -0.2194,-0.29033 -0.40269,-0.38607 -0.40732,-0.21276 -0.005,0.17331 0.11065,0.3887 0.25617,0.47863 0.14552,0.0899 0.26458,0.28259 0.26458,0.42811 0,0.14552 -0.11906,0.191 -0.26458,0.10106 -0.14552,-0.0899 -0.26459,-6.6e-4 -0.26459,0.1984 0,0.19906 -0.18742,0.59304 -0.41649,0.87551 -0.22908,0.28248 -0.34111,0.36476 -0.24897,0.18286 0.11248,-0.22206 -0.0549,-0.33073 -0.50955,-0.33073 -0.54998,0 -0.67707,0.12709 -0.67707,0.67708 0,0.45461 0.10866,0.62203 0.33073,0.50954 0.1819,-0.0921 0.12237,0.003 -0.13229,0.21199 -0.25466,0.20874 -0.46302,0.48809 -0.46302,0.62078 0,0.13269 -0.98227,1.19642 -2.18282,2.36384 -4.20975,4.0936 -5.15824,4.87719 -5.90353,4.87719 -0.56882,0 -0.65034,0.0715 -0.41067,0.360297 0.23845,0.28732 -0.0747,0.61106 -1.54615,1.59827 -1.01485,0.68089 -1.91576,1.35219 -2.00203,1.49179 -0.0863,0.13959 -0.37804,0.25381 -0.64837,0.25381 -0.27033,0 -0.53119,0.0893 -0.5797,0.19843 -0.2761,0.62123 -2.63821,1.8263 -3.32312,1.69535 -0.17849,-0.0341 -0.61112,0.12574 -0.96141,0.35526 -0.35029,0.22952 -0.74004,0.39859 -0.86611,0.37572 -0.83742,-0.15196 -1.30101,0.60004 -0.55995,0.90829 0.1819,0.0757 0.0926,0.12626 -0.19843,0.11242 -1.26367,-0.0601 -1.98,0.0795 -1.91823,0.37388 0.0688,0.32778 -0.60687,0.71985 -3.505728,2.03435 -3.1533,1.42988 -4.950789,1.8838 -7.459709,1.8838 -1.28143,0 -2.32988,0.10914 -2.32988,0.24253 0,0.13339 0.14883,0.2936 0.33073,0.35602 0.63477,0.21781 -3.2138,0.49645 -4.47906,0.32429 -1.95091,-0.26546 -2.3433,-0.40611 -1.9059,-0.68313 0.24784,-0.15697 0.0672,-0.22692 -0.56035,-0.21707 -0.77169,0.0121 -0.83784,0.0545 -0.39687,0.25429 0.3703,0.16777 0.21144,0.19227 -0.52917,0.0816 -0.58208,-0.087 -1.17144,-0.26276 -1.30969,-0.39063 -0.13824,-0.12787 -0.60421,-0.23249 -1.03548,-0.23249 -1.26754,0 -7.32461,-3.4273 -12.62503,-7.14368 -0.37548,-0.26327 -1.50657,-0.82829 -2.51354,-1.25559 -1.81814,-0.77152 -1.83452,-0.77333 -2.36001,-0.25973 -1.64909,1.61175 -7.28383,4.40727 -9.47085,4.69869 -0.90291,0.12032 -2.33207,0.40576 -3.17591,0.63432 -0.84385,0.22857 -1.81836,0.41557 -2.16559,0.41557 -0.34723,0 -0.9665,0.13577 -1.37616,0.30171 l -0.74482,0.30171 0.66145,0.17553 c 0.99772,0.26476 -2.64187,0.81032 -5.34263,0.80084 -5.61682,-0.0197 -13.97195,-1.13563 -13.97195,-1.86609 0,-0.29969 -1.33042,-0.31394 -1.7949,-0.0192 -0.18683,0.11855 -0.27945,0.38461 -0.20583,0.59126 0.66105,1.85558 1.24672,16.38301 0.66047,16.38301 -0.20759,0 -0.24706,0.46578 -0.1289,1.52136 0.10537,0.94139 0.0195,2.3713 -0.22532,3.75092 -0.21759,1.22627 -0.35114,2.30154 -0.29678,2.3895 0.17637,0.28536 -0.60256,3.51509 -1.53414,6.36114 -0.86892,2.65459 -2.66816,6.20038 -3.4941,6.88584 -0.21386,0.17749 -0.38883,0.53922 -0.38883,0.80386 0,0.26463 -0.11906,0.55474 -0.26458,0.64468 -0.33017,0.20405 -0.33123,0.0774 -0.007,-0.77653 0.223,-0.58655 0.18708,-0.67868 -0.26459,-0.67868 -0.53234,0 -0.54751,0.0509 -0.6313,2.11666 -0.0402,0.99025 -1.85017,3.70335 -2.471,3.70389 -0.1819,1.5e-4 -0.33073,0.12874 -0.33073,0.28575 0,0.37829 -2.65248,3.4187 -2.98249,3.4187 -0.14152,0 -0.10909,-0.1786 0.0721,-0.39688 0.22757,-0.2742 0.23758,-0.39687 0.0324,-0.39687 -0.27393,0 -0.40935,0.3624 -0.32503,0.86976 0.0584,0.35147 -1.4063703,1.50414 -1.7551903,1.38119 -0.18187,-0.0641 -0.40097,0.17497 -0.49171,0.53651 -0.09,0.35867 -0.33097,0.65212 -0.53545,0.65212 -0.39284,0 -1.45832,0.53283 -1.69581,0.84805 -0.34734,0.46099 -3.35488,1.6129 -4.90396,1.87825 -2.8071,0.48084 -6.15064,-0.54268 -8.22791,-2.51871 -0.46037,-0.43794 -0.96934,-0.71448 -1.13104,-0.61454 -0.1617,0.0999 -0.26628,0.0836 -0.23241,-0.0364 0.0339,-0.11996 -0.40967,-0.69849 -0.98563,-1.28563 -2.5047897,-2.55338 -4.8749767,-6.59475 -4.8825667,-8.32518 -0.006,-1.2626 -0.52782,-3.07791 -0.77192,-2.68296 -0.2873,0.46487 -0.0278,-4.17925 0.2936,-5.25454 0.63364,-2.11983 3.492917,-5.73717 4.6389767,-5.86889 0.40316,-0.0463 0.74791,-0.23307 0.7661,-0.41497 0.0182,-0.1819 0.0628,-0.39026 0.0992,-0.46302 0.0364,-0.0728 0.0913,-0.22159 0.12207,-0.33073 0.14047,-0.49842 0.51307,-1.28748 0.75555,-1.60002 0.21822,-0.28128 0.30561,-0.28128 0.48404,0 0.15256,0.24049 0.21895,0.17037 0.22179,-0.23423 0.002,-0.34281 0.21909,-0.64574 0.53322,-0.74544 0.29104,-0.0924 0.52917,-0.28597 0.52917,-0.43021 0,-0.56647 1.64995,-2.30734 2.04365,-2.15626 0.31156,0.11956 0.35738,0.0229 0.20972,-0.44233 -0.16387,-0.51631 -0.11526,-0.57192 0.36634,-0.41907 0.3072,0.0975 0.55529,0.0599 0.55529,-0.0841 0,-0.1432 -0.1313,-0.30413 -0.29177,-0.35762 -0.16047,-0.0535 0.0777,-0.49272 0.52916,-0.97607 0.45152,-0.48335 0.82094,-0.94268 0.82094,-1.02075 0,-0.0781 0.53578,-0.76907 1.19062999,-1.53557 0.65484,-0.7665 1.19062,-1.51356 1.19062,-1.66012 0,-0.14657 0.0893,-0.30617 0.19844,-0.35468 0.34732,-0.15436 1.65364001,-2.30967 1.65364001,-2.72835 0,-0.27391 0.26253,-0.40255 0.82154,-0.40255 0.7989,0 0.81876,-0.0292 0.72062,-1.05833 -0.0555,-0.58209 -0.008,-1.05834 0.1045,-1.05834 0.11298,0 0.22033,0.14883 0.23854,0.33073 0.0182,0.1819 0.12424,-0.14552 0.23562,-0.7276 0.2315,-1.20995 0.94621,-3.85488 1.3584,-5.02708 0.43367,-1.23328 0.61937,-6.40393 0.24614,-6.85364 -0.35456,-0.42721 -0.87129,-0.24555 -6.63393001,2.33228 -2.68104999,1.19933 -3.57299999,1.47865 -4.72177999,1.47865 -1.76074,0 -4.00306,0.63252 -4.7676997,1.34489 -0.63694,0.59341 -0.54245,1.08627 0.16955,0.88433 0.2499997,-0.0709 0.1660197,0.0212 -0.18662,0.20473 -0.50488,0.26275 -0.66422,0.26449 -0.74965,0.008 -0.21853,-0.65558 -2.554697,-0.25421 -3.391607,0.5827 -0.49734,0.49735 -0.47552,0.67488 0.0861,0.70022 0.26645,0.012 0.12603,0.14119 -0.33073,0.30426 -0.43656,0.15585 -0.85328,0.36843 -0.92604,0.47241 -0.21994,0.31429 -4.83285,1.58382 -5.75469,1.58375 -0.47294,-3e-5 -0.85989,0.10133 -0.85989,0.22525 0,0.21692 -1.20043,0.56484 -5.15938,1.49531 -2.01199,0.47289 -7.25057,1.03209 -9.78958,1.04502 -2.90754,0.0148 -7.23497,-0.64957 -9.57512,-1.47004 -0.84556,-0.29646 -1.73036,-0.58039 -1.96623,-0.63095 -1.42236,-0.30492 -6.27236,-3.39032 -6.30305,-4.00978 -0.008,-0.16633 -0.19975,-0.37333 -0.42559,-0.45999 -0.27443,-0.10531 -0.35061,-0.0489 -0.2297,0.17013 0.0995,0.18023 -0.16221,-0.066 -0.58157,-0.54714 l -0.76249,-0.87483 -1.22579,1.32474 c -0.67419,0.7286 -1.16036,1.39017 -1.08038,1.47015 0.08,0.08 -0.012,0.1454 -0.20445,0.1454 -0.19241,0 -0.72584,0.28679 -1.18538,0.6373 -0.80882,0.61691 -2.78629,1.56802 -2.78629,1.34013 0,-0.0617 -0.32742,0.0152 -0.72761,0.17099 -0.93082,0.36234 -7.57158,0.33839 -7.69363,-0.0278 -0.0492,-0.14772 -0.31773,-0.26858 -0.59664,-0.26858 -0.33073,0 -0.50712,-0.18406 -0.50712,-0.52917 0,-0.29104 -0.11906,-0.52917 -0.26458,-0.52917 -0.14553,0 -0.26459,0.23813 -0.26459,0.52917 0,0.29104 -0.0298,0.52719 -0.0661,0.52477 -0.56541,-0.0375 -3.38617,-1.29041 -3.10388,-1.37863 0.21554,-0.0674 0.0942,-0.0795 -0.26956,-0.027 -0.72522,0.10471 -9.12267,-3.93122 -8.81655,-4.23735 0.0954,-0.0954 -0.0176,-0.17349 -0.25113,-0.17349 -0.61108,0 -2.8203,-1.39408 -2.83021,-1.78594 -0.005,-0.1819 -0.20275,-0.33073 -0.44035,-0.33073 -0.23759,0 -0.64799,-0.24905 -0.912,-0.55346 -0.264,-0.3044 -0.59379,-0.48314 -0.73285,-0.39719 -0.13906,0.0859 -0.97882,-0.37938 -1.86612,-1.03404 -0.88731,-0.65467 -2.35743,-1.7418 -3.26694,-2.41584 -0.9095,-0.67404 -1.62093,-1.337727 -1.58094,-1.474867 0.04,-0.13714 -0.0502,-0.17341 -0.20035,-0.0806 -0.29607,0.18298 -1.92053,-1.06812 -4.139936,-3.18845 -0.771,-0.73658 -1.67402,-1.48611 -2.0067,-1.66564 -0.33268,-0.17952 -0.843,-0.66436 -1.13406,-1.07743 -0.29104,-0.41307 -1.51143,-1.7881 -2.71197,-3.05563 -2.30577,-2.4344 -2.80819,-3.56923 -1.5875,-3.58573 0.57954,-0.008 0.58129,-0.0161 0.0661,-0.31359 -0.67338,-0.38882 -1.19053,-0.90157 -1.19095,-1.18082 -1.7e-4,-0.11954 -0.3044,-0.57092 -0.67605,-1.00308 -0.49708,-0.57801 -0.73105,-0.69625 -0.88495,-0.44724 -0.21465,0.34732 -0.77983,-0.30762 -1.16213,-1.34671 -0.0937,-0.25466 -0.35268,-0.46302 -0.57553,-0.46302 -0.22285,0 -0.40518,-0.16867 -0.40518,-0.37482 0,-0.20616 -0.11333,-0.41452 -0.25185,-0.46302 -0.24943,-0.0874 -3.98148,-7.68946 -3.98148,-8.11019 0,-0.19652 -1.27532,-3.02222 -1.81279,-4.01655 -0.11798,-0.21828 -0.61173,-1.64703 -1.0972,-3.175 -0.48548,-1.52797 -0.98184,-2.81781 -1.10302,-2.86632 -0.12118,-0.0485 -0.22033,-0.53071 -0.22033,-1.07156 0,-0.54085 -0.10483,-1.09648 -0.23296,-1.23472 -0.12813,-0.13825 -0.43352,-1.20386 -0.67864,-2.36802 -0.24513,-1.16417 -0.60552,-2.65245 -0.80087,-3.3073 -0.47484,-1.59176 -1.64921,-8.01743 -2.00676,-10.9802 -2.00569,-16.61978 -2.16312,-27.35485 -0.64586,-44.04253995 0.42336,-4.65644995 0.55889,-5.39653995 0.94456,-5.15817995 0.13504,0.0835 0.24553,-0.024 0.24553,-0.23869 0,-0.21475 -0.14739,-0.43958 -0.32754,-0.49963 -0.2495,-0.0832 -0.19054,-0.7031 0.24746,-2.60173 0.31626,-1.37091 0.71292,-3.5045901 0.88148,-4.7415101 0.16855,-1.23693 0.69989,-4.0349 1.18074,-6.21771 0.48085,-2.18282 1.00369,-4.74206 1.16186,-5.68721 0.15817,-0.94515 0.40175,-1.75652 0.5413,-1.80303 0.13955,-0.0465 0.19617,-0.23457 0.12582,-0.41789 -0.0703,-0.18333 0.23258,-1.31099 0.67316,-2.50593 0.44059,-1.19494 0.78839,-2.25764 0.7729,-2.36157 -0.0721,-0.48323 0.0546,-0.86922 0.24633,-0.75072 0.11651,0.072 0.36525,-0.42698 0.55276,-1.10887 0.37673,-1.36999 1.0707,-3.51382 1.72886,-5.34082 0.38041,-1.05599 3.53778,-7.70307 4.14736,-8.73125 1.36524,-2.30277 1.82126,-3.00939 1.82336,-2.82538 0.001,0.11954 0.18867,0.0312 0.41623,-0.1964 0.22756,-0.22756 0.35593,-0.50729 0.28528,-0.62161 -0.0707,-0.11433 0.10833,-0.50219 0.39776,-0.86193 l 0.52623,-0.65406 -0.3001,0.66146 -0.3001,0.66146 0.54223,-0.66146 c 0.29823,-0.3638 0.49147,-0.80269 0.42942,-0.9753 -0.10487,-0.29174 0.64843,-1.45915 1.33405,-2.06741 0.16403,-0.14552 0.47747,-0.53501 0.69653,-0.86552 0.21906,-0.33052 0.83179,-1.06948 1.36162,-1.64212 0.52984,-0.57265 0.96334,-1.10486 0.96334,-1.1827 0,-0.22702 1.64366,-1.73362 1.89133,-1.73362 0.12394,0 0.22534,-0.10966 0.22534,-0.24369 0,-0.40092 2.39147,-2.66672 2.81463,-2.66672 0.21538,0 0.32171,-0.11309 0.23629,-0.25131 -0.18023,-0.29162 0.765996,-0.87066 1.015336,-0.62133 0.0919,0.0919 0.16708,-0.0314 0.16708,-0.27389 0,-0.41525 0.32246,-0.57203 0.92604,-0.45026 0.14552,0.0294 0.18132,-0.0299 0.0796,-0.13164 -0.20552,-0.20552 2.49813,-2.50491 2.9453,-2.50491 0.15534,0 0.28243,-0.11906 0.28243,-0.26458 0,-0.14552 0.17299,-0.26458 0.38442,-0.26458 0.75343,0 1.73225,-0.62202 1.73225,-1.10081 0,-0.41807 0.26064,-0.54675 0.95013,-0.46908 0.086,0.01 0.30608,-0.18709 0.48903,-0.43729 0.20716,-0.28331 0.46302,-0.37434 0.67824,-0.24132 0.22845,0.14119 0.28161,0.11004 0.15682,-0.0919 -0.11012,-0.17819 -0.0261,-0.30547 0.20165,-0.30547 0.21475,0 0.43013,-0.11013 0.47864,-0.24474 0.0485,-0.1346 0.26679,-0.28343 0.48507,-0.33073 0.21828,-0.0473 0.45641,-0.14552 0.52917,-0.21828 0.6469,-0.6469 8.89393,-4.23522 10.05416,-4.3746 0.50933,-0.0612 1.75948,-0.40043 2.77813,-0.75388 1.01864,-0.35345 2.41763,-0.72687 3.10885,-0.82982 0.69123,-0.10296 1.25677,-0.29274 1.25677,-0.42174 0,-0.129 0.38696,-0.23761 0.8599,-0.24137 0.73024,-0.006 0.92997,-0.1554 1.32462,-0.99218 0.79936,-1.69488 3.95737,-5.92624 5.75298,-7.70832 0.94589,-0.93876 1.71979,-1.83068 1.71979,-1.98204 0,-0.15137 0.2776,-0.41361 0.61689,-0.58276 0.33929,-0.16916 1.04178,-0.70845 1.56109,-1.19844 0.51931,-0.48999 0.85172,-0.71229 0.73869,-0.49401 -0.11302,0.21828 0.0974,0.0852 0.46765,-0.29569 0.37023,-0.3809 1.12944,-0.97237 1.68712,-1.31437 0.55769,-0.342 1.23098,-0.89355 1.4962,-1.22567 0.33752,-0.42265 0.7742,-0.60944 1.45521,-0.62245 0.78501,-0.015 0.87076,-0.0625 0.44382,-0.24599 -0.37784,-0.16237 -0.41568,-0.24167 -0.13229,-0.27732 0.21828,-0.0275 0.48822,-0.0351 0.59986,-0.0171 0.25324,0.041 3.45302,-1.55719 3.63347,-1.81479 0.0728,-0.10387 0.52875,-0.26603 1.01331,-0.36036 0.48456,-0.0943 1.25847,-0.34203 1.71979,-0.55046 1.14306,-0.51643 4.0321,-1.17845 7.05648,-1.616993 2.82446,-0.40954 13.24417,-0.45881 16.93334,-0.0801 z m 100.541667,11.171043 c 0,0.0572 0.18477,0.17489 0.41061,0.26156 0.23546,0.0904 0.34166,0.046 0.24897,-0.10399 -0.15538,-0.25141 -0.65958,-0.37186 -0.65958,-0.15757 z m 20.037149,15.94457 c 0.17913,0.0725 0.53632,0.0769 0.79375,0.01 0.25743,-0.0671 0.11087,-0.12638 -0.3257,-0.13177 -0.43656,-0.005 -0.64718,0.0495 -0.46805,0.12197 z m 1.5875,0.26458 c 0.17913,0.0725 0.53632,0.0769 0.79375,0.01 0.257428,-0.0671 0.110868,-0.12638 -0.3257,-0.13178 -0.43656,-0.005 -0.64718,0.0495 -0.46805,0.12197 z m -189.635066,2.2077 c 0,0.14552 0.18562,0.26459 0.41249,0.26459 0.22687,0 0.3389,-0.11907 0.24897,-0.26459 -0.0899,-0.14552 -0.27556,-0.26458 -0.41249,-0.26458 -0.13693,0 -0.24897,0.11906 -0.24897,0.26458 z m 215.635404,12.7 c 0,0.14552 0.11907,0.26459 0.26459,0.26459 0.14552,0 0.26458,-0.11907 0.26458,-0.26459 0,-0.14552 -0.11906,-0.26458 -0.26458,-0.26458 -0.14552,0 -0.26459,0.11906 -0.26459,0.26458 z m -153.729114,12.70258 c -0.75514,0.31278 -1.22695,1.08799 -0.9424,1.5484 0.0791,0.12804 -0.0685,0.47769 -0.3281,0.77699 l -0.47198,0.5442 -0.33461,-0.53581 c -0.18404,-0.29469 -0.41222,-0.4582 -0.50706,-0.36336 -0.0948,0.0948 0.003,0.28321 0.21677,0.41859 0.33235,0.21018 0.32596,0.24673 -0.0438,0.25019 -0.3148,0.003 -0.48049,0.34707 -0.60707,1.26083 -0.20356,1.46943 -0.64832,2.71198 -0.97075,2.71198 -0.12475,0 -0.0873,-0.30619 0.0832,-0.68041 0.25099,-0.55085 0.23731,-0.72641 -0.0718,-0.92199 -0.6084,-0.38493 -0.77871,-0.29487 -0.77871,0.41177 0,0.3638 -0.11906,0.66146 -0.26459,0.66146 -0.14552,0 -0.26458,0.66379 -0.26458,1.4751 0,1.2571 -0.16489,1.75563 -1.11576,3.37343 -0.61366,1.04409 -1.19236,1.95788 -1.28599,2.03064 -0.0936,0.0728 -0.38158,0.54901 -0.63988,1.05833 -0.25831,0.50932 -0.63211,1.02125 -0.83067,1.13763 -0.19857,0.11637 -0.36103,0.36311 -0.36103,0.54832 0,0.42425 -1.61151,3.44285 -1.9014,3.56162 -0.1184,0.0485 -0.21527,0.20565 -0.21527,0.3492 0,0.14356 -0.36387,0.78987 -0.80859,1.43626 -0.44473,0.64639 -0.93577,1.54007 -1.09121,1.98595 -0.20167,0.57853 -0.36412,0.72918 -0.56724,0.52606 -0.40175,-0.40175 -0.70796,-0.3532 -0.70796,0.11225 0,0.21828 0.11906,0.39688 0.26459,0.39688 0.43595,0 0.30428,0.48051 -0.43972,1.60478 -0.64256,0.97096 -0.77594,1.04759 -1.52136,0.874 -0.44938,-0.10466 -1.01667,-0.19493 -1.26065,-0.2006 -0.24397,-0.006 -0.38688,-0.10208 -0.31757,-0.21423 0.0693,-0.11215 -0.23709,-0.13128 -0.68089,-0.0425 -0.45957,0.0919 -0.8069,0.05 -0.8069,-0.0974 0,-0.14236 -0.8632,-0.33196 -1.91823,-0.42134 -1.91511,-0.16223 -6.03079,-0.76192 -8.53281,-1.24329 -0.7276,-0.13999 -1.91823,-0.32079 -2.64583,-0.40179 -0.72761,-0.081 -1.68011,-0.26613 -2.11667,-0.41142 -0.43656,-0.14528 -2.28203,-0.50298 -4.10104,-0.79489 -1.81901,-0.29192 -3.62062,-0.59556 -4.00356,-0.67477 -0.38295,-0.0792 -0.76844,-0.0273 -0.85663,0.11545 -0.17593,0.28466 -0.92839,3.13932 -3.46695,13.1528601 -1.58597,6.256 -2.05176,7.80604 -2.96629,9.87104995 -0.21318,0.48136 -0.42428,1.13621005 -0.46911,1.45520005 -0.11814,0.84073 -0.69397,2.29979 -0.90763,2.29979 -0.10064,0 -0.20957,0.74414 -0.24207,1.65364 -0.0686,1.92106 -1.60706,8.4520099 -1.94215,8.2449099 -0.12477,-0.0771 -0.22686,-0.0282 -0.22686,0.10882 0,0.13696 0.40841,0.23814 0.90759,0.22484 0.49917,-0.0133 0.90301,-0.0886 0.89743,-0.16727 -0.006,-0.0787 0.0761,-0.41097 0.1816,-0.73839 0.18561,-0.5762 0.28206,-0.64452 0.98994,-0.70115 0.39236,-0.0314 1.25677,-1.32784 1.25677,-1.88493 0,-0.21477 0.18401,-0.3904799 0.4089,-0.3904799 0.47946,0 1.70777,-1.1582 1.70777,-1.61029 0,-0.39847 2.21436,-2.62304 2.61102,-2.62304 0.16467,0 0.2994,-0.20256 0.2994,-0.45014 0,-0.24758 0.5418,-0.96196 1.20401,-1.5875 0.66222,-0.62555 1.12449,-1.13736 1.02727,-1.13736 -0.0972,0 0.58137,-0.77967 1.50796,-1.73262005 0.92659,-0.95294 1.72353,-1.84329995 1.77098,-1.97857995 0.0474,-0.13528 0.82135,-0.99729 1.71979,-1.91558 0.89844,-0.91829 2.22884,-2.35308 2.95644,-3.18843 0.97357,-1.11773 1.46266,-1.48755 1.85209,-1.40043 0.966,0.21612 2.65238,0.93164 2.24896,0.95421 -0.22176,0.0124 -0.0662,0.20144 0.3526,0.4284 0.41222,0.22341 0.92442,0.33907 1.13822,0.25702 0.21821,-0.0837 0.31783,-0.0344 0.22709,0.11238 -0.0889,0.14385 0.009,0.26155 0.21845,0.26155 0.20905,0 0.51842,0.16668 0.68749,0.37039 0.16907,0.20372 0.68966,0.36067 1.15688,0.34878 0.46721,-0.0119 1.62338,0.3437 2.56927,0.79021 0.94588,0.4465 2.19604,0.97353 2.77812,1.17117 0.58208,0.19764 1.11786,0.43166 1.19063,0.52005 0.28487,0.34608 6.93639,2.88481995 7.55824,2.88481995 0.36324,0 0.72283,-0.16258 0.79909,-0.36129 0.0762,-0.19871 1.71119,-1.95487995 3.6332,-3.90260995 1.92201,-1.94772 4.64274,-4.7617 6.04606,-6.2532901 1.40332,-1.49159 2.6406,-2.71198 2.7495,-2.71198 0.1089,0 -0.0182,0.23886 -0.28235,0.53079 -0.2642,0.29193 -0.39973,0.61142 -0.30119,0.70997 0.29591,0.2959 0.76567,-0.36106 0.76567,-1.07081 0,-0.38485 0.31829,-0.96842 0.75792,-1.38961 0.78759,-0.75456 1.37927,-0.75689 0.62485,-0.002 -0.39478,0.39477 -0.38761,0.42837 0.0914,0.42837 0.59782,0 0.89288,-0.54621 0.57389,-1.06235 -0.19555,-0.31641 1.11936,-2.08828 2.97905,-4.01435 0.4781,-0.49517 1.14204,-0.67148 0.86979,-0.23098 -0.0845,0.13672 0.0573,0.23957 0.31511,0.22856 0.25781,-0.011 1.36171,0.48709 2.45312,1.10689 1.0914,0.6198 2.46062,1.38015 3.04271,1.68967 0.58208,0.30952 1.142,0.69098 1.24427,0.84768 0.10227,0.1567 0.69759,0.49625 1.32292,0.75456 0.62534,0.2583 1.31557,0.57265 1.533847,0.69855 2.2419897,1.29315 3.3704197,2.00254 3.6971697,2.32426 0.65026,0.64021 4.74411,2.4669301 5.07304,2.2636401 0.20221,-0.12497 0.23553,-0.0737 0.0974,0.14982 -0.14047,0.22729 -0.0883,0.29715 0.15756,0.211 0.36267,-0.12707 5.68047,2.37604 5.478,2.57851 -0.0575,0.0574 -1.26056,-0.49167 -2.67359001,-1.22026 -1.41302999,-0.72858 -2.56914999,-1.26119 -2.56914999,-1.18357 0,0.0776 0.62508,0.45606 1.38907,0.84097 0.76397999,0.38492 1.69601999,0.91624 2.07118999,1.18072 0.75791001,0.5343 2.68228001,1.29082 3.65014001,1.43498 0.39501,0.0588 0.88495,-0.14461 1.32021,-0.54821 0.38066,-0.35296 0.78263,-0.64175 0.89325,-0.64175 0.11063,0 0.43927,-0.23813 0.73031,-0.52917 0.37029,-0.37029 0.88195,-0.52917 1.70418,-0.52917 0.64626,0 1.2564603,-0.13179 1.3560203,-0.29287 0.12698,-0.20547 -0.0855,-0.23509 -0.7119903,-0.0992 l -0.893,0.19365 0.50403,-0.56223 c 0.27722,-0.30922 0.6641703,-0.56222 0.8599003,-0.56222 0.19572,0 0.35586,-0.11907 0.35586,-0.26459 0,-0.14552 0.1786,-0.26458 0.39688,-0.26458 0.21828,0 0.39687,-0.11906 0.39687,-0.26458 0,-0.14553 0.15713,-0.26459 0.34917,-0.26459 0.19203,0 0.61221,-0.30254 0.93373,-0.6723201 0.32152,-0.36977 0.70017,-0.60087 0.84146,-0.51355 0.14129,0.0873 0.25689,0.0617 0.25689,-0.0568 0,-0.11859 0.38696,-0.38232 0.8599,-0.58608 0.47294,-0.20376 1.03849,-0.53423 1.25677,-0.73439 1.1782,-1.08038 2.04847,-1.70042 2.57969,-1.83796 0.32742,-0.0848 0.59531,-0.29174 0.59531,-0.45992 0,-0.16817 0.44649,-0.52167 0.99219,-0.78555 1.87926,-0.90872 2.58249,-1.37461 3.56305,-2.3605 0.54086,-0.5438 1.14212,-0.98872 1.33615,-0.98872 0.19403,0 0.49565,-0.14288 0.67028,-0.3175 0.24694,-0.24695 0.3175,-0.22666 0.3175,0.0913 0,0.22483 0.23812,0.62429 0.52916,0.88768 0.33948,0.30721 0.52917,0.36139 0.52917,0.15111 0,-0.18028 0.44648,0.13595 0.99219,0.70274 1.13988,1.18391 3.87726,3.51177 4.12957,3.51177 0.0935,0 0.39039,0.20836 0.65987,0.46302 1.11025,1.0492 2.21049,1.90055 3.276,2.53492 1.27881,0.7613601 2.58404,1.9253501 2.58404,2.3044401 0,0.13963 0.14882,0.22411 0.33073,0.18773 0.1819,-0.0364 0.30096,0.0827 0.26458,0.26458 -0.0364,0.1819 0.0827,0.30096 0.26458,0.26458 0.1819,-0.0364 0.30338,0.0754 0.26996,0.24846 -0.0334,0.17304 0.17493,0.38942 0.46302,0.48085 0.28809,0.0914 0.52379,0.28431 0.52379,0.42862 0,0.1443 0.10825,0.19547 0.24054,0.1137 0.1323,-0.0818 0.97094,0.46164 1.86364,1.20756 1.56116,1.30448 1.67061,1.35046 2.86831,1.2051 0.68487,-0.0831 2.43585,-0.52603 3.89105,-0.98425 1.45521,-0.45822 3.1514,-0.97591 3.76932,-1.15042 0.61791,-0.17452 1.2668,-0.46063 1.44198,-0.63581 0.17517,-0.17517 0.54158,-0.31849 0.81424,-0.31849 0.27266,0 1.40338,-0.30469 2.5127,-0.67708 1.26407,-0.42433 2.26892,-0.61383 2.69195,-0.50766 0.37124,0.0932 0.58288,0.0773 0.47031,-0.0353 -0.19778,-0.19777 1.80277,-1.02641 4.35026,-1.80192 l 1.23409,-0.3756801 0.25514,1.3680701 c 0.14033,0.75244 0.8754,3.74932 1.63351,6.65973 1.45794,5.59716 1.62511,6.37321 1.66485,7.72869 0.0148,0.50432 0.19105,0.91327 0.43378,1.00642 0.34402,0.13201 0.35,0.19329 0.0377,0.38629 -0.49251,0.30438 0.90555,0.56531 3.46921,0.64747 5.54467,0.17769 10.27823,0.52632 10.27823,0.75699 0,0.15307 0.45576,0.18854 1.12448,0.0875 0.81112,-0.12253 1.01388,-0.0938 0.7276,0.10297 -0.28492,0.19588 0.27481,0.26587 1.98438,0.24814 1.30969,-0.0136 4.09681,0.0632 6.1936,0.17054 2.869749,0.14698 3.765389,0.11926 3.622409,-0.11208 -0.10447,-0.16904 -0.0568,-0.30734 0.10586,-0.30734 0.1627,0 0.22103,-0.12101 0.12963,-0.26889 -0.0914,-0.1479 -0.26863,-0.20559 -0.39384,-0.1282 -0.12521,0.0774 -0.92066,-0.43128 -1.76766,-1.13035 -2.759209,-2.27732 -6.017749,-4.74971 -6.963959,-5.28386 -0.56847,-0.32091 -0.89602,-0.69035005 -0.8483,-0.95677005 0.0428,-0.23909 -0.1057,-0.44886 -0.33073,-0.46708 -0.77186,-0.0625 -0.89407,-0.0998 -1.11402,-0.34007 -0.12811,-0.13994 -0.0819,-0.16111 0.11024,-0.0505 0.1819,0.10467 0.33073,0.0933 0.33073,-0.0253 0,-0.11858 -0.32742,-0.3617 -0.72761,-0.54024 -0.40018,-0.17855 -1.29246,-0.83269995 -1.98285,-1.45365995 -3.25541,-2.92804 -4.14568,-3.64255 -4.53853,-3.64255 -0.27643,0 -0.42393,-0.23143 -0.42393,-0.66515 0,-0.36584 -0.29086,-1.88389 -0.64637,-3.37344 -0.3555,-1.4895601 -1.00968,-4.4942201 -1.45374,-6.6770401 -0.44406,-2.18281 -0.98043,-4.74265 -1.19193,-5.68854 -0.2115,-0.94588 -0.65617,-3.07345 -0.98816,-4.72793 -0.40965,-2.04157 -0.73289,-3.05555 -1.00597,-3.1557 -0.2213,-0.0812 -0.46754,-0.2433 -0.54719,-0.36031 -0.1779,-0.26133 -11.4205,-1.02149 -12.17798,-0.82341 -0.29934,0.0783 -0.82627,-0.009 -1.17095,-0.19306 -0.34468,-0.18447 -0.87781,-0.26973 -1.18473,-0.18947 -0.30693,0.0803 -0.93983,0.0286 -1.40645,-0.11482 -0.46662,-0.14342 -3.28918,-0.30483 -6.27236,-0.35869 -7.33296,-0.13241 -9.525,-0.33122 -9.525,-0.86387 0,-0.22739 -0.0752,-0.33825 -0.16708,-0.24635 -0.30024,0.30023 -1.14218,-0.33579 -0.98539,-0.74438 0.10392,-0.2708 -0.0224,-0.39284 -0.40672,-0.39284 -0.30661,0 -0.55748,-0.11906 -0.55748,-0.26458 0,-0.14553 -0.19439,-0.26459 -0.43198,-0.26459 -0.2376,0 -0.66102,-0.26407 -0.94094,-0.58682 -0.34657,-0.3996 -0.56888,-0.48987 -0.69677,-0.28293 -0.13227,0.21401 -0.38222,0.15045 -0.845,-0.21487 -1.02681,-0.81056 -5.07474,-3.51083 -5.8827,-3.9242 -0.40019,-0.20475 -0.72761,-0.47121 -0.72761,-0.59214 0,-0.12093 -0.19122,-0.21987 -0.42494,-0.21987 -0.49382,0 -2.29557,-1.32346 -3.34043,-2.45369 -0.42903,-0.46408 -0.8825,-0.72038 -1.11601,-0.63078 -0.48972,0.18793 -0.79906,-0.24713 -0.36602,-0.51476 0.39954,-0.24693 -0.3971,-0.58902 -1.43333,-0.61551 -0.40018,-0.0102 -0.7276,-0.13766 -0.7276,-0.28318 0,-0.14552 -0.2311,-0.26458 -0.51355,-0.26458 -0.28246,0 -0.58096,-0.10906 -0.66334,-0.24236 -0.0824,-0.13329 -0.49696,0.10484 -0.9213,0.52917 -0.42434,0.42434 -0.95927,0.77152 -1.18875,0.77152 -0.22947,0 -0.41723,0.09 -0.41723,0.2 0,0.11 -0.34596,0.35313 -0.7688,0.5403 -0.42285,0.18717 -1.04792,0.60663 -1.38907,0.93214 -1.44152,1.37545 -3.75983,2.51714 -4.07519,2.00689 -0.0815,-0.13186 -0.28997,-0.23792 -0.46328,-0.23569 -0.2243,0.003 -0.21722,0.0662 0.0246,0.21959 0.75115,0.47661 -0.5856,2.14043 -1.72875,2.15172 -0.35017,0.003 -0.59532,0.16932 -0.59532,0.40276 0,0.21828 -0.17584,0.39688 -0.39077,0.39688 -0.2149303,0 -0.5858103,0.29765 -0.8241803,0.66145 -0.23837,0.36381 -0.57755,0.66146 -0.75373,0.66146 -0.17618,0 -0.59996,0.29766 -0.94174,0.66146 -0.34177,0.3638 -0.77924,0.66146 -0.97216,0.66146 -0.19291,0 -0.35157,0.0893 -0.35256,0.19844 -9.9e-4,0.10914 -0.39279,0.4646 -0.87066,0.7899 l -0.86885,0.59147 -2.76736,-1.07638 c -1.52205001,-0.59201 -2.99911,-1.14606 -3.28236,-1.23123 -0.51028,-0.15343 -0.51028,-0.15687 0,-0.37431 0.34903,-0.14874 0.23996,-0.17073 -0.33844,-0.0682 -0.4694,0.0832 -1.00518,0.0549 -1.19063,-0.0628 -0.18545,-0.11769 -0.39672,-0.21953 -0.46948,-0.2263 -0.33325,-0.031 -4.15864,-1.5515 -4.6302,-1.84037 -0.29105,-0.17828 -1.00542,-0.47592 -1.5875,-0.66142 -1.5029397,-0.47896 -15.3896067,-5.57087 -16.8702967,-6.18594 -0.40189,-0.16694 -0.81423,-0.54173 -0.91631,-0.83288 -0.18009,-0.51361 -0.18831,-0.51241 -0.27649,0.0401 -0.0527,0.33015 -0.41442,0.70345 -0.86082,0.88836 z m 53.452037,0.80679 c 0,0.15411 -0.11906,0.20661 -0.26458,0.11667 -0.14552,-0.0899 -0.26458,-0.21602 -0.26458,-0.28019 0,-0.0642 0.11906,-0.11668 0.26458,-0.11668 0.14552,0 0.26458,0.12609 0.26458,0.2802 z m -55.562497,2.36563 c 0,0.14552 -0.11906,0.26459 -0.26458,0.26459 -0.14552,0 -0.26459,-0.11907 -0.26459,-0.26459 0,-0.14552 0.11907,-0.26458 0.26459,-0.26458 0.14552,0 0.26458,0.11906 0.26458,0.26458 z m 1.85208,-4.08542 c 0,0.22687 0.12101,0.3377 0.2689,0.2463 0.1479,-0.0914 0.2004,-0.27703 0.11668,-0.41249 -0.22681,-0.36699 -0.38558,-0.29856 -0.38558,0.16619 z m -88.899996,6.73126 c 0,0.14552 0.0525,0.26458 0.11667,0.26458 0.0642,0 0.19026,-0.11906 0.2802,-0.26458 0.0899,-0.14553 0.0374,-0.26459 -0.11668,-0.26459 -0.1541,0 -0.28019,0.11906 -0.28019,0.26459 z m 72.825106,18.98385 c -0.26215,1.07978 -0.24845,1.12448 0.34471,1.12448 0.73459,0 1.09138,-0.45714 0.6788,-0.86972 -0.16195,-0.16195 -0.29445,-0.65164 -0.29445,-1.0882 0,-1.03948 -0.37973,-0.60538 -0.72906,0.83344 z m -1.65219,-0.99219 c 0,0.14552 0.0525,0.26459 0.11668,0.26459 0.0642,0 0.19026,-0.11907 0.2802,-0.26459 0.0899,-0.14552 0.0374,-0.26458 -0.11668,-0.26458 -0.15411,0 -0.2802,0.11906 -0.2802,0.26458 z m -30.83554,13.3352401 c -0.20386,0.20386 -0.44098,0.88847 -0.52693,1.52136 -0.0859,0.63288 -0.21057,1.41858 -0.27694,1.74601 -0.0664,0.32742 6.6e-4,0.59531 0.14895,0.59531 0.1483,0 0.26963,-0.47625 0.26963,-1.05833 0,-0.58209 0.10518,-1.05834 0.23374,-1.05834 0.12855,0 0.29184,-0.26789 0.36285,-0.59531 0.071,-0.32742 0.21669,-0.80367 0.32373,-1.05833 0.23421,-0.55719 -0.0254,-0.60201 -0.53503,-0.0924 z m 147.588447,15.6642 c 0.0879,0.0879 0.31612,0.0973 0.50712,0.0209 0.21106,-0.0845 0.14837,-0.14716 -0.15985,-0.15986 -0.27892,-0.0115 -0.43519,0.0511 -0.34727,0.13897 z M -16.697684,28.191943 c 0,0.13616 -0.98227,0.37344 -2.18281,0.52728 -6.73937,0.8636 -8.66695,1.13126 -9.98469,1.38646 -0.8022,0.15536 -2.47057,0.40185 -3.7075,0.54776 -6.88433,0.81207 -9.82821,1.19568 -11.90625,1.55147 -0.80037,0.13703 -2.82443,0.38126 -4.49792,0.54273 -1.67349,0.16147 -3.24945,0.40378 -3.50214,0.53846 -0.25268,0.13468 -1.02659,0.24877 -1.71979,0.25353 -1.27468,0.009 -3.49523,0.29767 -6.15515,0.80085 -0.80037,0.1514 -1.8124,0.3259 -2.24896,0.38776 -0.43656,0.0619 -1.74625,0.25766 -2.91042,0.4351 -1.16416,0.17745 -2.58261,0.31018 -3.1521,0.29497 -0.70338,-0.0188 -0.91551,0.0483 -0.66146,0.20908 0.29297,0.18545 0.25936,0.23849 -0.15519,0.24483 -0.43893,0.007 -0.46149,0.0518 -0.13229,0.26459 0.33917,0.21919 0.32955,0.25707 -0.0661,0.26053 -0.25467,0.002 -0.46302,0.18264 -0.46302,0.40093 0,0.22427 0.23692,0.39687 0.54478,0.39687 0.32078,0 0.47258,-0.11682 0.36919,-0.28412 -0.0966,-0.15626 0.075,-0.12762 0.38126,0.0636 0.30626,0.19127 0.55685,0.41654 0.55685,0.50061 0,0.0841 1.13966,1.33534 2.53259,2.78062 1.39292,1.44528 2.84553,3.0445 3.22802,3.55382 0.72468,0.96498 1.68919,2.02402 4.73141,5.19512 3.7797,3.93983 6.97048,7.47272 6.97048,7.71786 0,0.14004 0.47625,0.68488 1.05833,1.21076 0.58209,0.52587 1.05834,1.0959 1.05834,1.26672 0,0.42524 0.80203,1.27829 1.20184,1.27829 0.3259,0 3.9904,3.59229 4.38646,4.30002 0.11526,0.20594 1.19699,1.40905 2.40385,2.67356 1.20687,1.26452 2.84915,3.03542 3.64951,3.93535 0.80037,0.89993 1.94485,2.14661 2.5433,2.77041 0.83885,0.87439 1.05906,1.28605 0.96134,1.79721 -0.11199,0.58586 -0.0385,0.66087 0.6317,0.64444 0.65154,-0.016 0.68386,-0.0486 0.22929,-0.23161 -0.49168,-0.19793 -0.4825,-0.22004 0.12959,-0.31214 0.41058,-0.0618 0.69005,-0.29847 0.74184,-0.62828 0.081,-0.5158 1.10282,-2.77869 1.37396,-3.04271 0.40212,-0.39155 0.79743,-1.40526 0.79822,-2.04693 7.9e-4,-0.6352 0.78268,-2.83422 1.95336,-5.49369 0.82237,-1.8682 1.7285,-4.32276 2.02675,-5.49011 0.1766,-0.69122 0.42468,-1.25677 0.55129,-1.25677 0.12661,0 0.23019,-0.16221 0.23019,-0.36048 0,-0.19827 0.35719,-1.22667 0.79375,-2.28535 0.43657,-1.05867 0.79375,-2.21888 0.79375,-2.57824 0,-0.49347 0.10486,-0.61314 0.42845,-0.48896 0.34175,0.13114 0.40272,0.0298 0.30128,-0.50086 -0.07,-0.3659 -0.0176,-0.66527 0.11633,-0.66527 0.13393,0 0.16992,-0.11907 0.08,-0.26459 -0.0899,-0.14552 -0.0176,-0.26458 0.16077,-0.26458 0.17836,0 0.25726,-0.067 0.17532,-0.14897 -0.12753,-0.12754 0.75577,-2.43455 2.01968,-5.27499 0.73041,-1.64149 0.95152,-2.28854 0.95152,-2.78455 0,-0.67933 1.72366,-4.26713 1.94412,-4.04668 0.0949,0.0949 0.17254,-0.3108 0.17254,-0.90157 0,-0.73006 0.13251,-1.12497 0.41365,-1.23285 0.2275,-0.0873 0.35299,-0.25687 0.27886,-0.37682 -0.0741,-0.11995 0.4541,-1.68262 1.17385,-3.4726 1.71325,-4.26075 1.70987,-4.3639 -0.14656,-4.46569 -0.80037,-0.0439 -1.45521,0.0316 -1.45521,0.16777 z m 53.609297,7.4527 c 0.37763,1.3841 0.84016,2.88161 1.02785,3.32781 0.58309,1.38623 1.49092,4.8689 1.33496,5.12125 -0.0816,0.132 -0.0399,0.27993 0.0927,0.32874 0.13254,0.0488 0.28211,0.3864 0.33238,0.7502 0.0503,0.3638 0.2045,0.74274 0.34276,0.84209 0.13826,0.0993 0.23882,0.62393 0.22346,1.16576 -0.0154,0.54182 0.0543,0.85205 0.15484,0.68941 0.10052,-0.16265 0.56305,0.9201 1.02783,2.40611 0.46478,1.48601 1.3795,4.41601 2.03271,6.51111 0.65321,2.0951 1.1249,3.9108 1.04821,4.0349 -0.0767,0.12409 -0.0441,0.37445 0.0725,0.55635 0.27917,0.43571 0.87104,2.11091 0.86469,2.4474 -0.003,0.14552 -0.24577,-0.21167 -0.54005,-0.79375 -0.55731,-1.10237 -0.53055,-0.80838 0.14454,1.5875 0.32175,1.1419 0.58415,1.05819 0.41466,-0.1323 -0.14997,-1.05342 0.32476,0.16401 0.93648,2.40153 0.3749,1.3713 0.79241,2.70001 0.92781,2.9527 0.1354,0.25268 0.24619,0.69917 0.24619,0.99218 0,0.30782 0.17545,0.53276 0.41555,0.53276 0.36876,0 2.88819,-1.88003 3.32518,-2.48129 0.0929,-0.12779 0.27277,-0.16811 0.39979,-0.0896 0.12701,0.0785 0.46775,-0.039 0.75718,-0.26105 0.36085,-0.27686 0.42304,-0.44249 0.19789,-0.52696 -0.25136,-0.0943 -0.24027,-0.21129 0.0472,-0.49881 0.20658,-0.20659 0.45765,-0.37561 0.55793,-0.37561 0.10027,0 0.65756,-0.47525 1.23841,-1.0561 0.58085,-0.58085 1.19192,-0.97848 1.35794,-0.88362 0.16601,0.0949 0.21982,0.0813 0.11957,-0.0302 -0.10024,-0.11145 0.37601,-0.67445 1.05833,-1.25112 0.68233,-0.57666 1.48554,-1.31795 1.7849,-1.64731 0.29936,-0.32936 1.34116,-1.22506 2.3151,-1.99046 0.97395,-0.76539 1.77081,-1.50684 1.77081,-1.64767 0,-0.14082 0.11906,-0.18246 0.26458,-0.0925 0.14553,0.0899 0.26459,-0.0816 0.26459,-0.38126 0,-0.31282 0.17252,-0.54478 0.40518,-0.54478 0.22285,0 0.46959,-0.16785 0.54831,-0.373 0.0787,-0.20515 0.40241,-0.44288 0.7193,-0.52829 0.67668,-0.18239 2.56054,-1.82998 2.56054,-2.23941 0,-0.15525 0.17859,-0.21375 0.39688,-0.12998 0.27833,0.1068 0.39687,-0.0208 0.39687,-0.42723 0,-0.3438 0.13356,-0.535 0.32837,-0.47007 0.29367,0.0979 0.99455,-0.37646 0.99455,-0.6731 0,-0.29343 2.49142,-2.56726 2.81294,-2.56726 0.19913,0 0.36206,-0.17057 0.36206,-0.37904 0,-0.20848 0.23812,-0.45462 0.52916,-0.547 0.29105,-0.0924 0.52917,-0.33852 0.52917,-0.54699 0,-0.23026 0.26578,-0.37905 0.67707,-0.37905 0.37239,0 0.61177,-0.10567 0.53195,-0.23482 -0.0798,-0.12915 0.50847,-0.7932 1.3073,-1.47566 1.42636,-1.21858 1.94994,-2.32844 0.98941,-2.09731 -0.73262,0.17628 -12.69895,-3.71604 -13.09282,-4.25874 -0.10692,-0.14732 -0.19621,-0.18714 -0.19844,-0.0885 -0.005,0.21245 -4.0416,-0.85928 -6.02106,-1.59853 -0.76274,-0.28486 -1.89384,-0.60049 -2.51354,-0.70142 -1.20615,-0.19642 -4.93014,-1.22603 -6.02154,-1.66483 -0.3638,-0.14627 -2.10752,-0.71654 -3.87494,-1.26727 -2.07129,-0.64542 -3.17068,-1.11286 -3.09307,-1.31511 0.0662,-0.17258 -0.15458,-0.38532 -0.49068,-0.47277 -0.3361,-0.0874 -1.43635,-0.39755 -2.44499,-0.68914 -1.00864,-0.29158 -1.72302,-0.43403 -1.5875,-0.31654 0.21948,0.19028 1.0251,0.45591 2.97831,0.98199 0.33839,0.0911 0.55328,0.22768 0.47754,0.30342 -0.0757,0.0757 -1.15567,-0.14349 -2.39986,-0.48718 -1.91479,-0.52894 -2.26235,-0.70953 -2.26348,-1.17611 -0.003,-1.06623 -0.40041,-0.93529 -0.59362,0.19538 -0.1485,0.86902 -0.0306,1.74778 0.49118,3.66013 z m 109.457867,-2.59322 c 0.0845,0.21106 0.14716,0.14837 0.15986,-0.15986 0.0115,-0.27891 -0.0511,-0.43518 -0.13897,-0.34726 -0.0879,0.0879 -0.0973,0.31612 -0.0209,0.50712 z m -97.715087,2.43307 c 0,0.0558 0.23813,0.1637 0.52917,0.23981 0.29104,0.0761 0.52917,0.0305 0.52917,-0.10143 0,-0.1319 -0.23813,-0.23981 -0.52917,-0.23981 -0.29104,0 -0.52917,0.0456 -0.52917,0.10143 z m 1.59281,0.56642 c 0.18407,0.2218 0.40356,0.33439 0.48775,0.2502 0.0842,-0.0842 -0.0221,-0.26384 -0.23614,-0.39922 -0.56011,-0.35423 -0.6333,-0.31088 -0.25161,0.14902 z m 26.1223,7.97404 c 0.1819,0.0734 0.47955,0.0734 0.66145,0 0.18191,-0.0734 0.0331,-0.13345 -0.33072,-0.13345 -0.36381,0 -0.51263,0.06 -0.33073,0.13345 z m 1.01651,2.33832 c -0.23837,0.3638 -0.60925,0.66145 -0.82418,0.66145 -0.21492,0 -0.39077,0.11907 -0.39077,0.26459 0,0.35028 0.71563,0.34044 0.93398,-0.0128 0.11859,-0.19188 0.27931,-0.18792 0.52123,0.0128 0.21205,0.17598 0.41053,0.19196 0.50409,0.0406 0.0849,-0.13734 -0.0534,-0.32972 -0.30718,-0.42752 -0.43857,-0.16897 -0.43849,-0.19072 0.002,-0.43774 0.25467,-0.14297 0.46303,-0.37309 0.46303,-0.51138 0,-0.46719 -0.46569,-0.25543 -0.90172,0.41003 z m -6.08144,5.3133 c -0.24843,0.6474 -0.19448,0.7115 0.23628,0.28074 0.4498,-0.4498 0.5071,-0.69925 0.1606,-0.69925 -0.12995,0 -0.30855,0.18833 -0.39688,0.41851 z m -26.08976,14.94294 c 0,0.29963 0.1177,0.47204 0.26155,0.38313 0.14769,-0.0913 0.19564,0.0101 0.11015,0.2329 -0.0833,0.217 -0.026,0.61013 0.12728,0.87363 0.22842,0.3927 0.28013,0.28426 0.28672,-0.60129 0.004,-0.59421 -0.0713,-1.15975 -0.16834,-1.25677 -0.33861,-0.3386 -0.61736,-0.17226 -0.61736,0.3684 z m 4.62321,4.4312 c 0.0815,0.0815 0.29495,1.7e-4 0.47443,-0.18065 0.25936,-0.26131 0.22897,-0.2917 -0.14811,-0.14812 -0.26094,0.0994 -0.40779,0.24731 -0.32632,0.32877 z m -85.585707,2.77972 c 0,0.0455 0.38695,0.43249 0.85989,0.8599 l 0.8599,0.7771 -0.77711,-0.85989 c -0.72437,-0.80155 -0.94268,-0.98152 -0.94268,-0.77711 z m 162.730024,12.46367 c -0.006,0.13383 0.46329,-0.28289 1.04332,-0.92604 0.58003,-0.64316 1.05595,-1.28844 1.05761,-1.43396 0.004,-0.32573 -2.0852,2.02078 -2.10093,2.36 z M -59.385584,109.12236 c -0.24155,-0.0927 -0.43918,-0.0532 -0.43918,0.0878 0,0.14095 -0.16491,0.25628 -0.36645,0.25628 -0.51924,0 -1.29942,1.24326 -0.92528,1.47448 0.19977,0.12347 0.17829,0.24988 -0.0691,0.40662 -0.29945,0.18974 -0.29982,0.22813 -0.002,0.23151 0.45626,0.005 3.48014,-3.02477 3.4784,-3.48538 -7.3e-4,-0.19086 -0.27934,4.4e-4 -0.61915,0.42512 -0.41548,0.51925 -0.76169,0.71695 -1.05702,0.60362 z m 155.135806,0.60861 c 0,0.14552 0.23813,0.26459 0.52917,0.26459 0.29104,0 0.52917,-0.11907 0.52917,-0.26459 0,-0.14552 -0.23813,-0.26458 -0.52917,-0.26458 -0.29104,0 -0.52917,0.11906 -0.52917,0.26458 z m -1.058329,0.52917 c 0,0.14552 0.11906,0.26458 0.26458,0.26458 0.145529,0 0.264589,-0.11906 0.264589,-0.26458 0,-0.14552 -0.11906,-0.26458 -0.264589,-0.26458 -0.14552,0 -0.26458,0.11906 -0.26458,0.26458 z m -1.05833,0.52917 c 0,0.14552 0.11906,0.26458 0.26458,0.26458 0.14552,0 0.26458,-0.11906 0.26458,-0.26458 0,-0.14553 -0.11906,-0.26459 -0.26458,-0.26459 -0.14552,0 -0.26458,0.11906 -0.26458,0.26459 z m -156.368747,1.5875 c 0,0.14552 0.11906,0.26458 0.26458,0.26458 0.14552,0 0.26459,-0.11906 0.26459,-0.26458 0,-0.14553 -0.11907,-0.26459 -0.26459,-0.26459 -0.14552,0 -0.26458,0.11906 -0.26458,0.26459 z m -0.98668,0.42443 c 0.0879,0.0879 0.31613,0.0973 0.50712,0.0209 0.21107,-0.0845 0.14837,-0.14716 -0.15985,-0.15985 -0.27892,-0.0115 -0.43519,0.0511 -0.34727,0.13896 z m 68.4554267,1.95682 c 0,0.29104 0.11906,0.52916 0.26458,0.52916 0.14552,0 0.26458,-0.23812 0.26458,-0.52916 0,-0.29105 -0.11906,-0.52917 -0.26458,-0.52917 -0.14552,0 -0.26458,0.23812 -0.26458,0.52917 z m 19.1214903,7.33628 c 0.0573,0.54895 0.1051,0.16465 0.10627,-0.85399 0.001,-1.01865 -0.0457,-1.46779 -0.10413,-0.99809 -0.0584,0.4697 -0.0594,1.30313 -0.002,1.85208 z m -0.51681,7.52999 c 0.0845,0.21107 0.14715,0.14837 0.15985,-0.15985 0.0115,-0.27892 -0.051,-0.43519 -0.13897,-0.34727 -0.0879,0.0879 -0.0973,0.31613 -0.0209,0.50712 z m -10.85862,22.69935 c -0.0604,0.80234 0.34922,0.86908 0.83006,0.13523 0.41734,-0.63695 0.41129,-0.65919 -0.17934,-0.65919 -0.41955,0 -0.62363,0.16433 -0.65072,0.52396 z m -1.27465,1.83969 c 0.0959,0.1552 0.30102,0.28218 0.45577,0.28218 0.17544,0 0.15537,-0.15181 -0.0533,-0.40326 -0.36289,-0.43726 -0.68721,-0.33968 -0.40245,0.12108 z m 39.89682,-46.10925 c -0.1819,0.0734 -0.47956,0.0734 -0.66146,0 -0.1819,-0.0734 -0.0331,-0.13345 0.33073,-0.13345 0.3638,0 0.51263,0.06 0.33073,0.13345 z m -58.0099003,0.48623 c -0.3638,0.20797 -0.78052,0.37812 -0.92604,0.37812 -0.14552,0 0.0331,-0.17015 0.39687,-0.37812 0.36381,-0.20797 0.78053,-0.37813 0.92605,-0.37813 0.14552,0 -0.0331,0.17016 -0.39688,0.37813 z m 55.8767003,0.0485 c -0.191,0.0764 -0.4192,0.067 -0.50712,-0.0209 -0.0879,-0.0879 0.0684,-0.15046 0.34726,-0.13897 0.30823,0.0127 0.37092,0.0754 0.15986,0.15986 z m -1.32292,0.26458 c -0.191,0.0764 -0.4192,0.067 -0.50712,-0.0209 -0.0879,-0.0879 0.0683,-0.15045 0.34727,-0.13896 0.30822,0.0127 0.37092,0.0754 0.15985,0.15985 z m -55.8767003,0.18783 c 0,0.0572 -0.18477,0.17489 -0.41061,0.26155 -0.23546,0.0904 -0.34166,0.046 -0.24897,-0.10398 0.15538,-0.25141 0.65958,-0.37186 0.65958,-0.15757 z m -6.3917667,37.46684 c 0,0.36381 -0.0601,0.51264 -0.13345,0.33073 -0.0734,-0.1819 -0.0734,-0.47955 0,-0.66145 0.0734,-0.18191 0.13345,-0.0331 0.13345,0.33072 z m 0.28547,1.21268 c -0.0127,0.30822 -0.0754,0.37092 -0.15985,0.15985 -0.0764,-0.191 -0.067,-0.4192 0.0209,-0.50712 0.0879,-0.0879 0.15045,0.0684 0.13896,0.34727 z"
       id="path1" /></g></svg>
